{
    "KPlugin": {
        "Authors": [
            {
                "Email": "niedakh@gmail.com",
                "Name": "Piotr Szymański",
                "Name[az]": "Piotr Szymański",
                "Name[ca@valencia]": "Piotr Szymański",
                "Name[ca]": "Piotr Szymański",
                "Name[cs]": "Piotr Szymański",
                "Name[da]": "Piotr Szymański",
                "Name[de]": "Piotr Szymański",
                "Name[el]": "Piotr Szymański",
                "Name[en_GB]": "Piotr Szymański",
                "Name[es]": "Piotr Szymański",
                "Name[et]": "Piotr Szymański",
                "Name[eu]": "Piotr Szymański",
                "Name[fi]": "Piotr Szymański",
                "Name[fr]": "Piotr Szymański",
                "Name[gl]": "Piotr Szymański",
                "Name[ia]": "Piotr Szymański",
                "Name[it]": "Piotr Szymański",
                "Name[ko]": "Piotr Szymański",
                "Name[lt]": "Piotr Szymański",
                "Name[nl]": "Piotr Szymański",
                "Name[nn]": "Piotr Szymański",
                "Name[pl]": "Piotr Szymański",
                "Name[pt]": "Piotr Szymański",
                "Name[pt_BR]": "Piotr Szymański",
                "Name[ru]": "Piotr Szymański",
                "Name[sk]": "Piotr Szymański",
                "Name[sl]": "Piotr Szymański",
                "Name[sr@ijekavian]": "Пјотр Шимањски",
                "Name[sr@ijekavianlatin]": "Pjotr Šimanjski",
                "Name[sr@latin]": "Pjotr Šimanjski",
                "Name[sr]": "Пјотр Шимањски",
                "Name[sv]": "Piotr Szymański",
                "Name[tr]": "Piotr Szymański",
                "Name[uk]": "Piotr Szymański",
                "Name[x-test]": "xxPiotr Szymańskixx",
                "Name[zh_CN]": "Piotr Szymański",
                "Name[zh_TW]": "Piotr Szymański"
            },
            {
                "Email": "aacid@kde.org",
                "Name": "Albert Astals Cid",
                "Name[az]": "Albert Astals Cid",
                "Name[ca@valencia]": "Albert Astals Cid",
                "Name[ca]": "Albert Astals Cid",
                "Name[cs]": "Albert Astals Cid",
                "Name[da]": "Albert Astals Cid",
                "Name[de]": "Albert Astals Cid",
                "Name[el]": "Albert Astals Cid",
                "Name[en_GB]": "Albert Astals Cid",
                "Name[es]": "Albert Astals Cid",
                "Name[et]": "Albert Astals Cid",
                "Name[eu]": "Albert Astals Cid",
                "Name[fi]": "Albert Astals Cid",
                "Name[fr]": "Albert Astals Cid",
                "Name[gl]": "Albert Astals Cid",
                "Name[ia]": "Albert  Astals Cid",
                "Name[it]": "Albert Astals Cid",
                "Name[ko]": "Albert Astals Cid",
                "Name[lt]": "Albert Astals Cid",
                "Name[nl]": "Albert Astals Cid",
                "Name[nn]": "Albert Astals Cid",
                "Name[pl]": "Albert Astals Cid",
                "Name[pt]": "Albert Astals Cid",
                "Name[pt_BR]": "Albert Astals Cid",
                "Name[ru]": "Albert Astals Cid",
                "Name[sk]": "Albert Astals Cid",
                "Name[sl]": "Albert Astals Cid",
                "Name[sr@ijekavian]": "Алберт Асталс Сид",
                "Name[sr@ijekavianlatin]": "Albert Astals Sid",
                "Name[sr@latin]": "Albert Astals Sid",
                "Name[sr]": "Алберт Асталс Сид",
                "Name[sv]": "Albert Astals Cid",
                "Name[tr]": "Albert Astals Cid",
                "Name[uk]": "Albert Astals Cid",
                "Name[x-test]": "xxAlbert Astals Cidxx",
                "Name[zh_CN]": "Albert Astals Cid",
                "Name[zh_TW]": "Albert Astals Cid"
            }
        ],
        "Copyright": "© 2005-2007 Piotr Szymański\n© 2008 Albert Astals Cid",
        "Copyright[az]": "© 2005-2007 Piotr Szymański\n© 2008 Albert Astals Cid",
        "Copyright[ca@valencia]": "© 2005-2007 Piotr Szymański\n© 2008 Albert Astals Cid",
        "Copyright[ca]": "© 2005-2007 Piotr Szymański\n© 2008 Albert Astals Cid",
        "Copyright[cs]": "© 2005-2007 Piotr Szymański\n© 2008 Albert Astals Cid",
        "Copyright[da]": "© 2005-2007 Piotr Szymański\n© 2008 Albert Astals Cid",
        "Copyright[de]": "© 2005-2007 Piotr Szymański\n© 2008 Albert Astals Cid",
        "Copyright[el]": "© 2005-2007 Piotr Szymański\n© 2008 Albert Astals Cid",
        "Copyright[en_GB]": "© 2005-2007 Piotr Szymański\n© 2008 Albert Astals Cid",
        "Copyright[es]": "© 2005-2007 Piotr Szymański\n© 2008 Albert Astals Cid",
        "Copyright[et]": "© 2005-2007: Piotr Szymański\n© 2008: Albert Astals Cid",
        "Copyright[eu]": "© 2005-2007 Piotr Szymański\n© 2008 Albert Astals Cid",
        "Copyright[fi]": "© 2005–2007 Piotr Szymański\n© 2008 Albert Astals Cid",
        "Copyright[fr]": "© 2005-2007 Piotr Szymański\n© 2008 Albert Astals Cid",
        "Copyright[gl]": "© 2005-2007 Piotr Szymański\n© 2008 Albert Astals Cid",
        "Copyright[ia]": "© 2005-2007 Piotr Szymański\n© 2008 Albert Astals Cid",
        "Copyright[it]": "© 2005-2007 Piotr Szymański\n© 2008 Albert Astals Cid",
        "Copyright[ko]": "© 2005-2007 Piotr Szymański\n© 2008 Albert Astals Cid",
        "Copyright[lt]": "© 2005-2007 Piotr Szymański\n© 2008 Albert Astals Cid",
        "Copyright[nl]": "© 2005-2007 Piotr Szymański\n© 2008 Albert Astals Cid",
        "Copyright[nn]": "© 2005–2007 Piotr Szymański\n© 2008 Albert Astals Cid",
        "Copyright[pl]": "© 2005-2007 Piotr Szymański\n© 2008 Albert Astals Cid",
        "Copyright[pt]": "© 2005-2007 Piotr Szymański\n© 2008 Albert Astals Cid",
        "Copyright[pt_BR]": "© 2005-2007 Piotr Szymański\n© 2008 Albert Astals Cid",
        "Copyright[ru]": "© Piotr Szymański, 2005-2007\n© Albert Astals Cid, 2008",
        "Copyright[sk]": "© 2005-2007 Piotr Szymański\n© 2008 Albert Astals Cid",
        "Copyright[sl]": "© 2005-2007 Piotr Szymański\n© 2008 Albert Astals Cid",
        "Copyright[sr@ijekavian]": "© 2005—2007, Пјотр Шимањски\n© 2008, Алберт Асталс Сид",
        "Copyright[sr@ijekavianlatin]": "© 2005—2007, Pjotr Šimanjski\n© 2008, Albert Astals Sid",
        "Copyright[sr@latin]": "© 2005—2007, Pjotr Šimanjski\n© 2008, Albert Astals Sid",
        "Copyright[sr]": "© 2005—2007, Пјотр Шимањски\n© 2008, Алберт Асталс Сид",
        "Copyright[sv]": "© 2005-2007 Piotr Szymański\n© 2008 Albert Astals Cid",
        "Copyright[tr]": "© 2005-2007 Piotr Szymański\n© 2008 Albert Astals Cid",
        "Copyright[uk]": "© Piotr Szymański, 2005–2007\n© Albert Astals Cid, 2008",
        "Copyright[x-test]": "xx© 2005-2007 Piotr Szymański\n© 2008 Albert Astals Cidxx",
        "Copyright[zh_CN]": "© 2005-2007 Piotr Szymański\n© 2008 Albert Astals Cid",
        "Copyright[zh_TW]": "© 2005-2007 Piotr Szymański\n© 2008 Albert Astals Cid",
        "Description": "A Microsoft Windows help file renderer",
        "Description[az]": "Microsoft Windows köməkçi fayl tərtibatçısı",
        "Description[ca@valencia]": "Un renderitzador per als fitxers d'ajuda de Microsoft Windows",
        "Description[ca]": "Un renderitzador per als fitxers d'ajuda de Microsoft Windows",
        "Description[cs]": "Nástroj pro zobrazování nápovědy Microsoft Windows",
        "Description[da]": "En gengiver til Microsoft Windows-hjælpfiler",
        "Description[de]": "Darstellungsprogramm für Hilfedateien aus Microsoft Windows",
        "Description[el]": "Πρόγραμμα αποτύπωσης για αρχεία βοήθειας Microsoft Windows",
        "Description[en_GB]": "A Microsoft Windows help file renderer",
        "Description[es]": "Un visor de archivos de ayuda de Microsoft Windows",
        "Description[et]": "Microsoft Windowsi abifailide renderdaja",
        "Description[eu]": "Microsoft Windows laguntza fitxategien errendatzaile bat",
        "Description[fi]": "Microsoft Windows -ohjetiedostohahmonnin",
        "Description[fr]": "Un système de rendu pour les fichiers d'aide Windows",
        "Description[gl]": "Un visor de ficheiros de axuda de Microsoft Windows",
        "Description[ia]": "Un rendition de file de adjuta  de Microsoft Windows",
        "Description[it]": "Un visualizzatore per file di aiuto di Microsoft Windows",
        "Description[ko]": "Microsoft Windows 도움말 파일 표시기",
        "Description[lt]": "Microsoft Windows pagalbos failų atvaizdavimas",
        "Description[nl]": "Een viewer voor Microsoft Windows-helpbestanden",
        "Description[nn]": "Ein framvisar for Microsoft Windows-hjelpefiler",
        "Description[pl]": "System zajmujący się wyświetlaniem plików pomocy Microsoft Windows",
        "Description[pt]": "Um visualizador de ficheiros de ajuda do Microsoft Windows",
        "Description[pt_BR]": "Um interpretador de arquivos de ajuda do Microsoft Windows",
        "Description[ru]": "Модуль поддержки формата CHM (справка Microsoft Windows)",
        "Description[sk]": "Vykresľovanie súborov pomocníka Microsoft Windows",
        "Description[sl]": "Izrisovalnik datotek za pomoč za Microsoft Windows",
        "Description[sr@ijekavian]": "Рендерер за фајлове Виндоузове помоћи",
        "Description[sr@ijekavianlatin]": "Renderer za fajlove Windowsove pomoći",
        "Description[sr@latin]": "Renderer za fajlove Windowsove pomoći",
        "Description[sr]": "Рендерер за фајлове Виндоузове помоћи",
        "Description[sv]": "Ett återgivningsprogram av Microsoft Windows hjälpfiler",
        "Description[tr]": "Microsoft Windows yardım dosyası oluşturucusu",
        "Description[uk]": "Відображення файлів довідки Microsoft Windows",
        "Description[x-test]": "xxA Microsoft Windows help file rendererxx",
        "Description[zh_CN]": "Microsoft Windows 帮助文件渲染器",
        "Description[zh_TW]": "Microsoft Windows 說明檔成像器",
        "Id": "okular_chm",
        "License": "GPL",
        "MimeTypes": [
            "application/x-chm"
        ],
        "Name": "CHM Backend",
        "Name[az]": "CHM modulu",
        "Name[ca@valencia]": "Dorsal CHM",
        "Name[ca]": "Dorsal CHM",
        "Name[cs]": "Podpora CHM",
        "Name[da]": "CHM-backend",
        "Name[de]": "Anzeigemodul für CHM",
        "Name[el]": "Σύστημα υποστήριξης CHM",
        "Name[en_GB]": "CHM Backend",
        "Name[es]": "Motor para CHM",
        "Name[et]": "CHM-i taustaprogramm",
        "Name[eu]": "CHM-ren bizkarraldekoa",
        "Name[fi]": "CHM-taustaosa",
        "Name[fr]": "Moteur CHM",
        "Name[gl]": "Infraestrutura para CHM",
        "Name[ia]": "Retro-Administration de CHM",
        "Name[it]": "Backend CHM",
        "Name[ko]": "CHM 백엔드",
        "Name[lt]": "CHM programinė sąsaja",
        "Name[nl]": "CHM-backend",
        "Name[nn]": "CHM-motor",
        "Name[pl]": "Silnik CHM",
        "Name[pt]": "Infra-Estrutura de CHM",
        "Name[pt_BR]": "Infraestrutura CHM",
        "Name[ru]": "Модуль поддержки формата CHM",
        "Name[sk]": "CHM Backend",
        "Name[sl]": "Zaledje za CHM",
        "Name[sr@ijekavian]": "Позадина за ЦХМ",
        "Name[sr@ijekavianlatin]": "Pozadina za CHM",
        "Name[sr@latin]": "Pozadina za CHM",
        "Name[sr]": "Позадина за ЦХМ",
        "Name[sv]": "CHM-gränssnitt",
        "Name[tr]": "CHM Arka Ucu",
        "Name[uk]": "Модуль CHM",
        "Name[x-test]": "xxCHM Backendxx",
        "Name[zh_CN]": "CHM 后端",
        "Name[zh_TW]": "CHM 後端介面",
        "ServiceTypes": [
            "okular/Generator"
        ],
        "Version": "0.1.4"
    },
    "X-KDE-Priority": 2,
    "X-KDE-okularAPIVersion": 1,
    "X-KDE-okularHasInternalSettings": false
}
